%YAML 1.1
%TAG !u! tag:unity3d.com,2011:
--- !u!114 &11400000
MonoBehaviour:
  m_ObjectHideFlags: 0
  m_CorrespondingSourceObject: {fileID: 0}
  m_PrefabInstance: {fileID: 0}
  m_PrefabAsset: {fileID: 0}
  m_GameObject: {fileID: 0}
  m_Enabled: 1
  m_EditorHideFlags: 0
  m_Script: {fileID: 11500000, guid: 2b87b7045c01a40039c29111029704d7, type: 3}
  m_Name: XdImportSettings
  m_EditorClassIdentifier: 
  prefabOutputPath: Assets/{name}
  assetOutputDirectoryPath: Assets/{name}/
  metaOutputPath: Assets/{name}Meta
  fontDirectoryPath: Assets/Fonts/
  texturePreset: {fileID: 0}
  triggers:
  - {fileID: 11400000, guid: 4d533aa0c7d3f314db51c442c94089ac, type: 2}
  spriteSaveScale: 1
  reimportLayout: 1
  reimportAsset: 1
  logType: 0
  objectParsers: []
  groupParsers: []
  xdTriggers: []
  akyuiOutputPath: 
